Copyright 1986-2016 Xilinx, Inc. All Rights Reserved.
-------------------------------------------------------------------------------------------------------------------------------------------------------------------------------
| Tool Version     : Vivado v.2016.4 (win64) Build 1756540 Mon Jan 23 19:11:23 MST 2017
| Date             : Mon Apr 20 10:00:05 2020
| Host             : DESKTOP-0KQQTOC running 64-bit major release  (build 9200)
| Command          : report_power -file adc_to_fifo_wrapper_power_routed.rpt -pb adc_to_fifo_wrapper_power_summary_routed.pb -rpx adc_to_fifo_wrapper_power_routed.rpx
| Design           : adc_to_fifo_wrapper
| Device           : xc7z010clg400-1
| Design State     : routed
| Grade            : commercial
| Process          : typical
| Characterization : Production
-------------------------------------------------------------------------------------------------------------------------------------------------------------------------------

Power Report

Table of Contents
-----------------
1. Summary
1.1 On-Chip Components
1.2 Power Supply Summary
1.3 Confidence Level
2. Settings
2.1 Environment
2.2 Clock Constraints
3. Detailed Reports
3.1 By Hierarchy

1. Summary
----------

+--------------------------+-------+
| Total On-Chip Power (W)  | 1.654 |
| Dynamic (W)              | 1.526 |
| Device Static (W)        | 0.128 |
| Effective TJA (C/W)      | 11.5  |
| Max Ambient (C)          | 65.9  |
| Junction Temperature (C) | 44.1  |
| Confidence Level         | Low   |
| Setting File             | ---   |
| Simulation Activity File | ---   |
| Design Nets Matched      | NA    |
+--------------------------+-------+


1.1 On-Chip Components
----------------------

+--------------------------+-----------+----------+-----------+-----------------+
| On-Chip                  | Power (W) | Used     | Available | Utilization (%) |
+--------------------------+-----------+----------+-----------+-----------------+
| Clocks                   |    <0.001 |        4 |       --- |             --- |
| Slice Logic              |    <0.001 |      683 |       --- |             --- |
|   LUT as Logic           |    <0.001 |      112 |     17600 |            0.64 |
|   Register               |    <0.001 |      315 |     35200 |            0.89 |
|   Others                 |     0.000 |      188 |       --- |             --- |
|   LUT as Distributed RAM |     0.000 |       24 |      6000 |            0.40 |
|   LUT as Shift Register  |     0.000 |        1 |      6000 |            0.02 |
| Signals                  |    <0.001 |      389 |       --- |             --- |
| I/O                      |    <0.001 |       79 |       100 |           79.00 |
| PS7                      |     1.525 |        1 |       --- |             --- |
| Static Power             |     0.128 |          |           |                 |
| Total                    |     1.654 |          |           |                 |
+--------------------------+-----------+----------+-----------+-----------------+


1.2 Power Supply Summary
------------------------

+-----------+-------------+-----------+-------------+------------+
| Source    | Voltage (V) | Total (A) | Dynamic (A) | Static (A) |
+-----------+-------------+-----------+-------------+------------+
| Vccint    |       1.000 |     0.008 |       0.001 |      0.007 |
| Vccaux    |       1.800 |     0.012 |       0.000 |      0.012 |
| Vcco33    |       3.300 |     0.001 |       0.000 |      0.001 |
| Vcco25    |       2.500 |     0.000 |       0.000 |      0.000 |
| Vcco18    |       1.800 |     0.001 |       0.000 |      0.001 |
| Vcco15    |       1.500 |     0.001 |       0.000 |      0.001 |
| Vcco135   |       1.350 |     0.000 |       0.000 |      0.000 |
| Vcco12    |       1.200 |     0.000 |       0.000 |      0.000 |
| Vccaux_io |       1.800 |     0.000 |       0.000 |      0.000 |
| Vccbram   |       1.000 |     0.000 |       0.000 |      0.000 |
| MGTAVcc   |       1.000 |     0.000 |       0.000 |      0.000 |
| MGTAVtt   |       1.200 |     0.000 |       0.000 |      0.000 |
| MGTVccaux |       1.800 |     0.000 |       0.000 |      0.000 |
| Vccpint   |       1.000 |     0.752 |       0.722 |      0.030 |
| Vccpaux   |       1.800 |     0.060 |       0.050 |      0.010 |
| Vccpll    |       1.800 |     0.018 |       0.015 |      0.003 |
| Vcco_ddr  |       1.500 |     0.459 |       0.457 |      0.002 |
| Vcco_mio0 |       1.800 |     0.000 |       0.000 |      0.000 |
| Vcco_mio1 |       1.800 |     0.000 |       0.000 |      0.000 |
| Vccadc    |       1.800 |     0.020 |       0.000 |      0.020 |
+-----------+-------------+-----------+-------------+------------+


1.3 Confidence Level
--------------------

+-----------------------------+------------+--------------------------------------------------------+------------------------------------------------------------------------------------------------------------+
| User Input Data             | Confidence | Details                                                | Action                                                                                                     |
+-----------------------------+------------+--------------------------------------------------------+------------------------------------------------------------------------------------------------------------+
| Design implementation state | High       | Design is routed                                       |                                                                                                            |
| Clock nodes activity        | High       | User specified more than 95% of clocks                 |                                                                                                            |
| I/O nodes activity          | Low        | More than 75% of inputs are missing user specification | Provide missing input activity with simulation results or by editing the "By Resource Type -> I/Os" view   |
| Internal nodes activity     | Medium     | User specified less than 25% of internal nodes         | Provide missing internal nodes activity with simulation results or by editing the "By Resource Type" views |
| Device models               | High       | Device models are Production                           |                                                                                                            |
|                             |            |                                                        |                                                                                                            |
| Overall confidence level    | Low        |                                                        |                                                                                                            |
+-----------------------------+------------+--------------------------------------------------------+------------------------------------------------------------------------------------------------------------+


2. Settings
-----------

2.1 Environment
---------------

+-----------------------+------------------------+
| Ambient Temp (C)      | 25.0                   |
| ThetaJA (C/W)         | 11.5                   |
| Airflow (LFM)         | 250                    |
| Heat Sink             | none                   |
| ThetaSA (C/W)         | 0.0                    |
| Board Selection       | medium (10"x10")       |
| # of Board Layers     | 8to11 (8 to 11 Layers) |
| Board Temperature (C) | 25.0                   |
+-----------------------+------------------------+


2.2 Clock Constraints
---------------------

+------------+----------------------------------------------------------------+-----------------+
| Clock      | Domain                                                         | Constraint (ns) |
+------------+----------------------------------------------------------------+-----------------+
| clk_fpga_0 | adc_to_fifo_i/processing_system7_0/inst/FCLK_CLK_unbuffered[0] |            20.0 |
+------------+----------------------------------------------------------------+-----------------+


3. Detailed Reports
-------------------

3.1 By Hierarchy
----------------

+----------------------------------------------------------------------------+-----------+
| Name                                                                       | Power (W) |
+----------------------------------------------------------------------------+-----------+
| adc_to_fifo_wrapper                                                        |     1.526 |
|   adc_to_fifo_i                                                            |     1.526 |
|     adc_to_fifo_0                                                          |     0.000 |
|       inst                                                                 |     0.000 |
|     axi_gpio_0                                                             |    <0.001 |
|       U0                                                                   |    <0.001 |
|         AXI_LITE_IPIF_I                                                    |    <0.001 |
|           I_SLAVE_ATTACHMENT                                               |    <0.001 |
|             I_DECODER                                                      |    <0.001 |
|         gpio_core_1                                                        |    <0.001 |
|     axi_gpio_1                                                             |    <0.001 |
|       U0                                                                   |    <0.001 |
|         AXI_LITE_IPIF_I                                                    |    <0.001 |
|           I_SLAVE_ATTACHMENT                                               |    <0.001 |
|             I_DECODER                                                      |    <0.001 |
|         gpio_core_1                                                        |    <0.001 |
|     axis_data_fifo_0                                                       |    <0.001 |
|       inst                                                                 |    <0.001 |
|         gen_fifo_generator.fifo_generator_inst                             |    <0.001 |
|           inst_fifo_gen                                                    |    <0.001 |
|             gaxis_fifo.gaxisf.axisf                                        |    <0.001 |
|               grf.rf                                                       |    <0.001 |
|                 gntv_or_sync_fifo.gl0.rd                                   |    <0.001 |
|                   gr1.gdcf.dc                                              |    <0.001 |
|                     dc                                                     |    <0.001 |
|                   gr1.gr1_int.rfwft                                        |    <0.001 |
|                   grss.rsts                                                |    <0.001 |
|                   rpntr                                                    |    <0.001 |
|                 gntv_or_sync_fifo.gl0.wr                                   |    <0.001 |
|                   gwss.wsts                                                |    <0.001 |
|                   wpntr                                                    |    <0.001 |
|                 gntv_or_sync_fifo.mem                                      |    <0.001 |
|                   gdm.dm_gen.dm                                            |    <0.001 |
|                     RAM_reg_0_31_0_5                                       |    <0.001 |
|                     RAM_reg_0_31_12_15                                     |    <0.001 |
|                     RAM_reg_0_31_6_11                                      |    <0.001 |
|                 rstblk                                                     |    <0.001 |
|                   ngwrdrst.grst.g7serrst.gwrrd_rst_sync_stage[1].rrst_inst |    <0.001 |
|                   ngwrdrst.grst.g7serrst.gwrrd_rst_sync_stage[1].wrst_inst |    <0.001 |
|                   ngwrdrst.grst.g7serrst.gwrrd_rst_sync_stage[2].rrst_inst |    <0.001 |
|                   ngwrdrst.grst.g7serrst.gwrrd_rst_sync_stage[2].wrst_inst |    <0.001 |
|     axis_data_fifo_1                                                       |    <0.001 |
|       inst                                                                 |    <0.001 |
|         gen_fifo_generator.fifo_generator_inst                             |    <0.001 |
|           inst_fifo_gen                                                    |    <0.001 |
|             gaxis_fifo.gaxisf.axisf                                        |    <0.001 |
|               grf.rf                                                       |    <0.001 |
|                 gntv_or_sync_fifo.gl0.rd                                   |    <0.001 |
|                   gr1.gdcf.dc                                              |    <0.001 |
|                     dc                                                     |    <0.001 |
|                   gr1.gr1_int.rfwft                                        |    <0.001 |
|                   grss.rsts                                                |    <0.001 |
|                   rpntr                                                    |    <0.001 |
|                 gntv_or_sync_fifo.gl0.wr                                   |    <0.001 |
|                   gwss.wsts                                                |    <0.001 |
|                   wpntr                                                    |    <0.001 |
|                 gntv_or_sync_fifo.mem                                      |    <0.001 |
|                   gdm.dm_gen.dm                                            |    <0.001 |
|                     RAM_reg_0_31_0_5                                       |    <0.001 |
|                     RAM_reg_0_31_12_15                                     |    <0.001 |
|                     RAM_reg_0_31_6_11                                      |    <0.001 |
|                 rstblk                                                     |    <0.001 |
|                   ngwrdrst.grst.g7serrst.gwrrd_rst_sync_stage[1].rrst_inst |    <0.001 |
|                   ngwrdrst.grst.g7serrst.gwrrd_rst_sync_stage[1].wrst_inst |    <0.001 |
|                   ngwrdrst.grst.g7serrst.gwrrd_rst_sync_stage[2].rrst_inst |    <0.001 |
|                   ngwrdrst.grst.g7serrst.gwrrd_rst_sync_stage[2].wrst_inst |    <0.001 |
|     proc_sys_reset_0                                                       |    <0.001 |
|       U0                                                                   |    <0.001 |
|         EXT_LPF                                                            |    <0.001 |
|           ACTIVE_LOW_EXT.ACT_LO_EXT                                        |    <0.001 |
|         SEQ                                                                |    <0.001 |
|           SEQ_COUNTER                                                      |    <0.001 |
|     processing_system7_0                                                   |     1.525 |
|       inst                                                                 |     1.525 |
|   gpio_rtl_0_tri_iobuf_0                                                   |     0.000 |
|   gpio_rtl_0_tri_iobuf_1                                                   |     0.000 |
|   gpio_rtl_0_tri_iobuf_10                                                  |     0.000 |
|   gpio_rtl_0_tri_iobuf_11                                                  |     0.000 |
|   gpio_rtl_0_tri_iobuf_12                                                  |     0.000 |
|   gpio_rtl_0_tri_iobuf_13                                                  |     0.000 |
|   gpio_rtl_0_tri_iobuf_14                                                  |     0.000 |
|   gpio_rtl_0_tri_iobuf_15                                                  |     0.000 |
|   gpio_rtl_0_tri_iobuf_16                                                  |     0.000 |
|   gpio_rtl_0_tri_iobuf_17                                                  |     0.000 |
|   gpio_rtl_0_tri_iobuf_18                                                  |     0.000 |
|   gpio_rtl_0_tri_iobuf_19                                                  |     0.000 |
|   gpio_rtl_0_tri_iobuf_2                                                   |     0.000 |
|   gpio_rtl_0_tri_iobuf_20                                                  |     0.000 |
|   gpio_rtl_0_tri_iobuf_21                                                  |     0.000 |
|   gpio_rtl_0_tri_iobuf_22                                                  |     0.000 |
|   gpio_rtl_0_tri_iobuf_23                                                  |     0.000 |
|   gpio_rtl_0_tri_iobuf_24                                                  |     0.000 |
|   gpio_rtl_0_tri_iobuf_25                                                  |     0.000 |
|   gpio_rtl_0_tri_iobuf_26                                                  |     0.000 |
|   gpio_rtl_0_tri_iobuf_27                                                  |     0.000 |
|   gpio_rtl_0_tri_iobuf_28                                                  |     0.000 |
|   gpio_rtl_0_tri_iobuf_29                                                  |     0.000 |
|   gpio_rtl_0_tri_iobuf_3                                                   |     0.000 |
|   gpio_rtl_0_tri_iobuf_30                                                  |     0.000 |
|   gpio_rtl_0_tri_iobuf_31                                                  |     0.000 |
|   gpio_rtl_0_tri_iobuf_4                                                   |     0.000 |
|   gpio_rtl_0_tri_iobuf_5                                                   |     0.000 |
|   gpio_rtl_0_tri_iobuf_6                                                   |     0.000 |
|   gpio_rtl_0_tri_iobuf_7                                                   |     0.000 |
|   gpio_rtl_0_tri_iobuf_8                                                   |     0.000 |
|   gpio_rtl_0_tri_iobuf_9                                                   |     0.000 |
|   gpio_rtl_tri_iobuf_0                                                     |     0.000 |
|   gpio_rtl_tri_iobuf_1                                                     |     0.000 |
|   gpio_rtl_tri_iobuf_10                                                    |     0.000 |
|   gpio_rtl_tri_iobuf_11                                                    |     0.000 |
|   gpio_rtl_tri_iobuf_12                                                    |     0.000 |
|   gpio_rtl_tri_iobuf_13                                                    |     0.000 |
|   gpio_rtl_tri_iobuf_14                                                    |     0.000 |
|   gpio_rtl_tri_iobuf_15                                                    |     0.000 |
|   gpio_rtl_tri_iobuf_16                                                    |     0.000 |
|   gpio_rtl_tri_iobuf_17                                                    |     0.000 |
|   gpio_rtl_tri_iobuf_18                                                    |     0.000 |
|   gpio_rtl_tri_iobuf_19                                                    |     0.000 |
|   gpio_rtl_tri_iobuf_2                                                     |     0.000 |
|   gpio_rtl_tri_iobuf_20                                                    |     0.000 |
|   gpio_rtl_tri_iobuf_21                                                    |     0.000 |
|   gpio_rtl_tri_iobuf_22                                                    |     0.000 |
|   gpio_rtl_tri_iobuf_23                                                    |     0.000 |
|   gpio_rtl_tri_iobuf_24                                                    |     0.000 |
|   gpio_rtl_tri_iobuf_25                                                    |     0.000 |
|   gpio_rtl_tri_iobuf_26                                                    |     0.000 |
|   gpio_rtl_tri_iobuf_27                                                    |     0.000 |
|   gpio_rtl_tri_iobuf_28                                                    |     0.000 |
|   gpio_rtl_tri_iobuf_29                                                    |     0.000 |
|   gpio_rtl_tri_iobuf_3                                                     |     0.000 |
|   gpio_rtl_tri_iobuf_30                                                    |     0.000 |
|   gpio_rtl_tri_iobuf_31                                                    |     0.000 |
|   gpio_rtl_tri_iobuf_4                                                     |     0.000 |
|   gpio_rtl_tri_iobuf_5                                                     |     0.000 |
|   gpio_rtl_tri_iobuf_6                                                     |     0.000 |
|   gpio_rtl_tri_iobuf_7                                                     |     0.000 |
|   gpio_rtl_tri_iobuf_8                                                     |     0.000 |
|   gpio_rtl_tri_iobuf_9                                                     |     0.000 |
+----------------------------------------------------------------------------+-----------+


