
*** Running vivado
    with args -log adc_pid_fifo_dac_adc_to_pid_dac_wrapper_0_0.vds -m64 -product Vivado -mode batch -messageDb vivado.pb -notrace -source adc_pid_fifo_dac_adc_to_pid_dac_wrapper_0_0.tcl


****** Vivado v2016.4 (64-bit)
  **** SW Build 1756540 on Mon Jan 23 19:11:23 MST 2017
  **** IP Build 1755317 on Mon Jan 23 20:30:07 MST 2017
    ** Copyright 1986-2016 Xilinx, Inc. All Rights Reserved.

source adc_pid_fifo_dac_adc_to_pid_dac_wrapper_0_0.tcl -notrace
Command: synth_design -top adc_pid_fifo_dac_adc_to_pid_dac_wrapper_0_0 -part xc7z010clg400-1 -mode out_of_context
Starting synth_design
Attempting to get a license for feature 'Synthesis' and/or device 'xc7z010'
INFO: [Common 17-349] Got license for feature 'Synthesis' and/or device 'xc7z010'
INFO: Launching helper process for spawning children vivado processes
INFO: Helper process launched with PID 8572 
---------------------------------------------------------------------------------
Starting RTL Elaboration : Time (s): cpu = 00:00:09 ; elapsed = 00:00:15 . Memory (MB): peak = 291.457 ; gain = 81.367
---------------------------------------------------------------------------------
INFO: [Synth 8-638] synthesizing module 'adc_pid_fifo_dac_adc_to_pid_dac_wrapper_0_0' [d:/ECE/CapstoneDesign/ECE 483/Code/adc_pid_fifo_dac/adc_pid_fifo_dac.srcs/sources_1/bd/adc_pid_fifo_dac/ip/adc_pid_fifo_dac_adc_to_pid_dac_wrapper_0_0/synth/adc_pid_fifo_dac_adc_to_pid_dac_wrapper_0_0.sv:57]
INFO: [Synth 8-638] synthesizing module 'adc_to_dac_wrapper' [d:/ECE/CapstoneDesign/ECE 483/Code/adc_pid_fifo_dac/adc_pid_fifo_dac.srcs/sources_1/bd/adc_pid_fifo_dac/ipshared/f78c/sources_1/new/adc_to_dac_wrapper.sv:24]
INFO: [Synth 8-638] synthesizing module 'decimator' [d:/ECE/CapstoneDesign/ECE 483/Code/adc_pid_fifo_dac/adc_pid_fifo_dac.srcs/sources_1/bd/adc_pid_fifo_dac/ipshared/f78c/sources_1/new/decimator.sv:24]
INFO: [Synth 8-256] done synthesizing module 'decimator' (1#1) [d:/ECE/CapstoneDesign/ECE 483/Code/adc_pid_fifo_dac/adc_pid_fifo_dac.srcs/sources_1/bd/adc_pid_fifo_dac/ipshared/f78c/sources_1/new/decimator.sv:24]
INFO: [Synth 8-638] synthesizing module 'fig_of_merit' [d:/ECE/CapstoneDesign/ECE 483/Code/adc_pid_fifo_dac/adc_pid_fifo_dac.srcs/sources_1/bd/adc_pid_fifo_dac/ipshared/f78c/sources_1/new/fig_of_merit.sv:24]
INFO: [Synth 8-256] done synthesizing module 'fig_of_merit' (2#1) [d:/ECE/CapstoneDesign/ECE 483/Code/adc_pid_fifo_dac/adc_pid_fifo_dac.srcs/sources_1/bd/adc_pid_fifo_dac/ipshared/f78c/sources_1/new/fig_of_merit.sv:24]
INFO: [Synth 8-638] synthesizing module 'pid' [d:/ECE/CapstoneDesign/ECE 483/Code/adc_pid_fifo_dac/adc_pid_fifo_dac.srcs/sources_1/bd/adc_pid_fifo_dac/ipshared/f78c/sources_1/new/pid.sv:24]
INFO: [Synth 8-256] done synthesizing module 'pid' (3#1) [d:/ECE/CapstoneDesign/ECE 483/Code/adc_pid_fifo_dac/adc_pid_fifo_dac.srcs/sources_1/bd/adc_pid_fifo_dac/ipshared/f78c/sources_1/new/pid.sv:24]
INFO: [Synth 8-256] done synthesizing module 'adc_to_dac_wrapper' (4#1) [d:/ECE/CapstoneDesign/ECE 483/Code/adc_pid_fifo_dac/adc_pid_fifo_dac.srcs/sources_1/bd/adc_pid_fifo_dac/ipshared/f78c/sources_1/new/adc_to_dac_wrapper.sv:24]
INFO: [Synth 8-256] done synthesizing module 'adc_pid_fifo_dac_adc_to_pid_dac_wrapper_0_0' (5#1) [d:/ECE/CapstoneDesign/ECE 483/Code/adc_pid_fifo_dac/adc_pid_fifo_dac.srcs/sources_1/bd/adc_pid_fifo_dac/ip/adc_pid_fifo_dac_adc_to_pid_dac_wrapper_0_0/synth/adc_pid_fifo_dac_adc_to_pid_dac_wrapper_0_0.sv:57]
WARNING: [Synth 8-3331] design adc_to_dac_wrapper has unconnected port s_axis_tready1
---------------------------------------------------------------------------------
Finished RTL Elaboration : Time (s): cpu = 00:00:10 ; elapsed = 00:00:17 . Memory (MB): peak = 329.754 ; gain = 119.664
---------------------------------------------------------------------------------

Report Check Netlist: 
+------+------------------+-------+---------+-------+------------------+
|      |Item              |Errors |Warnings |Status |Description       |
+------+------------------+-------+---------+-------+------------------+
|1     |multi_driven_nets |      0|        0|Passed |Multi driven nets |
+------+------------------+-------+---------+-------+------------------+
---------------------------------------------------------------------------------
Finished RTL Optimization Phase 1 : Time (s): cpu = 00:00:11 ; elapsed = 00:00:18 . Memory (MB): peak = 329.754 ; gain = 119.664
---------------------------------------------------------------------------------
INFO: [Device 21-403] Loading part xc7z010clg400-1
INFO: [Project 1-570] Preparing netlist for logic optimization

Processing XDC Constraints
Initializing timing engine
Parsing XDC File [d:/ECE/CapstoneDesign/ECE 483/Code/adc_pid_fifo_dac/adc_pid_fifo_dac.srcs/sources_1/bd/adc_pid_fifo_dac/ip/adc_pid_fifo_dac_adc_to_pid_dac_wrapper_0_0/constrs_1/new/RedPitaya.xdc] for cell 'inst'
Finished Parsing XDC File [d:/ECE/CapstoneDesign/ECE 483/Code/adc_pid_fifo_dac/adc_pid_fifo_dac.srcs/sources_1/bd/adc_pid_fifo_dac/ip/adc_pid_fifo_dac_adc_to_pid_dac_wrapper_0_0/constrs_1/new/RedPitaya.xdc] for cell 'inst'
INFO: [Project 1-236] Implementation specific constraints were found while reading constraint file [d:/ECE/CapstoneDesign/ECE 483/Code/adc_pid_fifo_dac/adc_pid_fifo_dac.srcs/sources_1/bd/adc_pid_fifo_dac/ip/adc_pid_fifo_dac_adc_to_pid_dac_wrapper_0_0/constrs_1/new/RedPitaya.xdc]. These constraints will be ignored for synthesis but will be used in implementation. Impacted constraints are listed in the file [.Xil/adc_pid_fifo_dac_adc_to_pid_dac_wrapper_0_0_propImpl.xdc].
Resolution: To avoid this warning, move constraints listed in [.Xil/adc_pid_fifo_dac_adc_to_pid_dac_wrapper_0_0_propImpl.xdc] to another XDC file and exclude this new file from synthesis with the used_in_synthesis property (File Properties dialog in GUI) and re-run elaboration/synthesis.
Parsing XDC File [D:/ECE/CapstoneDesign/ECE 483/Code/adc_pid_fifo_dac/adc_pid_fifo_dac.runs/adc_pid_fifo_dac_adc_to_pid_dac_wrapper_0_0_synth_1/dont_touch.xdc]
Finished Parsing XDC File [D:/ECE/CapstoneDesign/ECE 483/Code/adc_pid_fifo_dac/adc_pid_fifo_dac.runs/adc_pid_fifo_dac_adc_to_pid_dac_wrapper_0_0_synth_1/dont_touch.xdc]
Completed Processing XDC Constraints

INFO: [Project 1-111] Unisim Transformation Summary:
No Unisim elements were transformed.

Constraint Validation Runtime : Time (s): cpu = 00:00:00 ; elapsed = 00:00:00.057 . Memory (MB): peak = 629.766 ; gain = 0.000
---------------------------------------------------------------------------------
Finished Constraint Validation : Time (s): cpu = 00:00:21 ; elapsed = 00:00:33 . Memory (MB): peak = 629.766 ; gain = 419.676
---------------------------------------------------------------------------------
---------------------------------------------------------------------------------
Start Loading Part and Timing Information
---------------------------------------------------------------------------------
Loading part: xc7z010clg400-1
---------------------------------------------------------------------------------
Finished Loading Part and Timing Information : Time (s): cpu = 00:00:21 ; elapsed = 00:00:33 . Memory (MB): peak = 629.766 ; gain = 419.676
---------------------------------------------------------------------------------
---------------------------------------------------------------------------------
Start Applying 'set_property' XDC Constraints
---------------------------------------------------------------------------------
Applied set_property DONT_TOUCH = true for inst. (constraint file  auto generated constraint, line ).
---------------------------------------------------------------------------------
Finished applying 'set_property' XDC Constraints : Time (s): cpu = 00:00:21 ; elapsed = 00:00:33 . Memory (MB): peak = 629.766 ; gain = 419.676
---------------------------------------------------------------------------------
WARNING: [Synth 8-3936] Found unconnected internal register 'accum_out1_reg' and it is trimmed from '20' to '16' bits. [d:/ECE/CapstoneDesign/ECE 483/Code/adc_pid_fifo_dac/adc_pid_fifo_dac.srcs/sources_1/bd/adc_pid_fifo_dac/ipshared/f78c/sources_1/new/decimator.sv:62]
WARNING: [Synth 8-3936] Found unconnected internal register 'accum_out2_reg' and it is trimmed from '20' to '16' bits. [d:/ECE/CapstoneDesign/ECE 483/Code/adc_pid_fifo_dac/adc_pid_fifo_dac.srcs/sources_1/bd/adc_pid_fifo_dac/ipshared/f78c/sources_1/new/decimator.sv:113]
INFO: [Synth 8-4471] merging register 's_axis_tdata_1_reg' into 'valid1_reg' [d:/ECE/CapstoneDesign/ECE 483/Code/adc_pid_fifo_dac/adc_pid_fifo_dac.srcs/sources_1/bd/adc_pid_fifo_dac/ipshared/f78c/sources_1/new/adc_to_dac_wrapper.sv:108]
---------------------------------------------------------------------------------
Finished RTL Optimization Phase 2 : Time (s): cpu = 00:00:22 ; elapsed = 00:00:34 . Memory (MB): peak = 629.766 ; gain = 419.676
---------------------------------------------------------------------------------

Report RTL Partitions: 
+-+--------------+------------+----------+
| |RTL Partition |Replication |Instances |
+-+--------------+------------+----------+
+-+--------------+------------+----------+
---------------------------------------------------------------------------------
Start RTL Component Statistics 
---------------------------------------------------------------------------------
Detailed RTL Component Info : 
+---Adders : 
	   2 Input     20 Bit       Adders := 2     
	   2 Input      4 Bit       Adders := 2     
+---XORs : 
	   2 Input      1 Bit         XORs := 1     
+---Registers : 
	               20 Bit    Registers := 2     
	               16 Bit    Registers := 9     
	                4 Bit    Registers := 2     
	                2 Bit    Registers := 1     
	                1 Bit    Registers := 7     
+---Muxes : 
	   2 Input     20 Bit        Muxes := 4     
	   2 Input     16 Bit        Muxes := 1     
	   4 Input      4 Bit        Muxes := 2     
	   2 Input      1 Bit        Muxes := 9     
---------------------------------------------------------------------------------
Finished RTL Component Statistics 
---------------------------------------------------------------------------------
---------------------------------------------------------------------------------
Start RTL Hierarchical Component Statistics 
---------------------------------------------------------------------------------
Hierarchical RTL Component report 
Module decimator 
Detailed RTL Component Info : 
+---Adders : 
	   2 Input     20 Bit       Adders := 2     
	   2 Input      4 Bit       Adders := 2     
+---Registers : 
	               20 Bit    Registers := 2     
	               16 Bit    Registers := 4     
	                4 Bit    Registers := 2     
	                1 Bit    Registers := 2     
+---Muxes : 
	   2 Input     20 Bit        Muxes := 4     
	   4 Input      4 Bit        Muxes := 2     
	   2 Input      1 Bit        Muxes := 8     
Module fig_of_merit 
Detailed RTL Component Info : 
+---Registers : 
	               16 Bit    Registers := 1     
	                1 Bit    Registers := 1     
Module pid 
Detailed RTL Component Info : 
+---Registers : 
	               16 Bit    Registers := 4     
	                1 Bit    Registers := 1     
+---Muxes : 
	   2 Input     16 Bit        Muxes := 1     
	   2 Input      1 Bit        Muxes := 1     
Module adc_to_dac_wrapper 
Detailed RTL Component Info : 
+---XORs : 
	   2 Input      1 Bit         XORs := 1     
+---Registers : 
	                2 Bit    Registers := 1     
	                1 Bit    Registers := 3     
---------------------------------------------------------------------------------
Finished RTL Hierarchical Component Statistics
---------------------------------------------------------------------------------
---------------------------------------------------------------------------------
Start Part Resource Summary
---------------------------------------------------------------------------------
Part Resources:
DSPs: 80 (col length:40)
BRAMs: 120 (col length: RAMB18 40 RAMB36 20)
---------------------------------------------------------------------------------
Finished Part Resource Summary
---------------------------------------------------------------------------------
---------------------------------------------------------------------------------
Start Cross Boundary and Area Optimization
---------------------------------------------------------------------------------
INFO: [Synth 8-4471] merging register 'pid1/error_in1_reg[15:0]' into 'pid1/error_in1_reg[15:0]' [d:/ECE/CapstoneDesign/ECE 483/Code/adc_pid_fifo_dac/adc_pid_fifo_dac.srcs/sources_1/bd/adc_pid_fifo_dac/ipshared/f78c/sources_1/new/pid.sv:44]
WARNING: [Synth 8-3331] design adc_to_dac_wrapper has unconnected port s_axis_tready1
INFO: [Synth 8-3333] propagating constant 1 across sequential element (inst/\valid_reg_sync1_reg[0] )
INFO: [Synth 8-3333] propagating constant 0 across sequential element (inst/valid1_reg)
INFO: [Synth 8-3333] propagating constant 0 across sequential element (inst/valid_ff_reg1_reg)
INFO: [Synth 8-3333] propagating constant 0 across sequential element (inst/\valid_reg_sync1_reg[1] )
INFO: [Synth 8-3333] propagating constant 0 across sequential element (inst/s_axis_tvalid_1_reg)
WARNING: [Synth 8-3332] Sequential element (decimator1/count1_reg[3]) is unused and will be removed from module adc_to_dac_wrapper.
WARNING: [Synth 8-3332] Sequential element (decimator1/count1_reg[2]) is unused and will be removed from module adc_to_dac_wrapper.
WARNING: [Synth 8-3332] Sequential element (decimator1/count1_reg[1]) is unused and will be removed from module adc_to_dac_wrapper.
WARNING: [Synth 8-3332] Sequential element (decimator1/count1_reg[0]) is unused and will be removed from module adc_to_dac_wrapper.
WARNING: [Synth 8-3332] Sequential element (decimator1/count2_reg[3]) is unused and will be removed from module adc_to_dac_wrapper.
WARNING: [Synth 8-3332] Sequential element (decimator1/count2_reg[2]) is unused and will be removed from module adc_to_dac_wrapper.
WARNING: [Synth 8-3332] Sequential element (decimator1/count2_reg[1]) is unused and will be removed from module adc_to_dac_wrapper.
WARNING: [Synth 8-3332] Sequential element (decimator1/count2_reg[0]) is unused and will be removed from module adc_to_dac_wrapper.
WARNING: [Synth 8-3332] Sequential element (valid1_reg) is unused and will be removed from module adc_to_dac_wrapper.
WARNING: [Synth 8-3332] Sequential element (valid_reg_sync1_reg[1]) is unused and will be removed from module adc_to_dac_wrapper.
WARNING: [Synth 8-3332] Sequential element (valid_reg_sync1_reg[0]) is unused and will be removed from module adc_to_dac_wrapper.
WARNING: [Synth 8-3332] Sequential element (valid_ff_reg1_reg) is unused and will be removed from module adc_to_dac_wrapper.
WARNING: [Synth 8-3332] Sequential element (s_axis_tvalid_1_reg) is unused and will be removed from module adc_to_dac_wrapper.
---------------------------------------------------------------------------------
Finished Cross Boundary and Area Optimization : Time (s): cpu = 00:00:22 ; elapsed = 00:00:34 . Memory (MB): peak = 629.766 ; gain = 419.676
---------------------------------------------------------------------------------

Report RTL Partitions: 
+-+--------------+------------+----------+
| |RTL Partition |Replication |Instances |
+-+--------------+------------+----------+
+-+--------------+------------+----------+
---------------------------------------------------------------------------------
Start Timing Optimization
---------------------------------------------------------------------------------
---------------------------------------------------------------------------------
Start Applying XDC Timing Constraints
---------------------------------------------------------------------------------
---------------------------------------------------------------------------------
Finished Applying XDC Timing Constraints : Time (s): cpu = 00:00:34 ; elapsed = 00:00:47 . Memory (MB): peak = 629.766 ; gain = 419.676
---------------------------------------------------------------------------------
---------------------------------------------------------------------------------
Finished Timing Optimization : Time (s): cpu = 00:00:34 ; elapsed = 00:00:47 . Memory (MB): peak = 629.766 ; gain = 419.676
---------------------------------------------------------------------------------

Report RTL Partitions: 
+-+--------------+------------+----------+
| |RTL Partition |Replication |Instances |
+-+--------------+------------+----------+
+-+--------------+------------+----------+
---------------------------------------------------------------------------------
Start Technology Mapping
---------------------------------------------------------------------------------
---------------------------------------------------------------------------------
Finished Technology Mapping : Time (s): cpu = 00:00:34 ; elapsed = 00:00:47 . Memory (MB): peak = 629.766 ; gain = 419.676
---------------------------------------------------------------------------------

Report RTL Partitions: 
+-+--------------+------------+----------+
| |RTL Partition |Replication |Instances |
+-+--------------+------------+----------+
+-+--------------+------------+----------+
---------------------------------------------------------------------------------
Start IO Insertion
---------------------------------------------------------------------------------
---------------------------------------------------------------------------------
Start Flattening Before IO Insertion
---------------------------------------------------------------------------------
---------------------------------------------------------------------------------
Finished Flattening Before IO Insertion
---------------------------------------------------------------------------------
---------------------------------------------------------------------------------
Start Final Netlist Cleanup
---------------------------------------------------------------------------------
---------------------------------------------------------------------------------
Finished Final Netlist Cleanup
---------------------------------------------------------------------------------
---------------------------------------------------------------------------------
Finished IO Insertion : Time (s): cpu = 00:00:35 ; elapsed = 00:00:48 . Memory (MB): peak = 629.766 ; gain = 419.676
---------------------------------------------------------------------------------

Report Check Netlist: 
+------+------------------+-------+---------+-------+------------------+
|      |Item              |Errors |Warnings |Status |Description       |
+------+------------------+-------+---------+-------+------------------+
|1     |multi_driven_nets |      0|        0|Passed |Multi driven nets |
+------+------------------+-------+---------+-------+------------------+
---------------------------------------------------------------------------------
Start Renaming Generated Instances
---------------------------------------------------------------------------------
---------------------------------------------------------------------------------
Finished Renaming Generated Instances : Time (s): cpu = 00:00:35 ; elapsed = 00:00:48 . Memory (MB): peak = 629.766 ; gain = 419.676
---------------------------------------------------------------------------------

Report RTL Partitions: 
+-+--------------+------------+----------+
| |RTL Partition |Replication |Instances |
+-+--------------+------------+----------+
+-+--------------+------------+----------+
---------------------------------------------------------------------------------
Start Rebuilding User Hierarchy
---------------------------------------------------------------------------------
---------------------------------------------------------------------------------
Finished Rebuilding User Hierarchy : Time (s): cpu = 00:00:35 ; elapsed = 00:00:48 . Memory (MB): peak = 629.766 ; gain = 419.676
---------------------------------------------------------------------------------
---------------------------------------------------------------------------------
Start Renaming Generated Ports
---------------------------------------------------------------------------------
---------------------------------------------------------------------------------
Finished Renaming Generated Ports : Time (s): cpu = 00:00:35 ; elapsed = 00:00:48 . Memory (MB): peak = 629.766 ; gain = 419.676
---------------------------------------------------------------------------------
---------------------------------------------------------------------------------
Start Handling Custom Attributes
---------------------------------------------------------------------------------
---------------------------------------------------------------------------------
Finished Handling Custom Attributes : Time (s): cpu = 00:00:35 ; elapsed = 00:00:48 . Memory (MB): peak = 629.766 ; gain = 419.676
---------------------------------------------------------------------------------
---------------------------------------------------------------------------------
Start Renaming Generated Nets
---------------------------------------------------------------------------------
---------------------------------------------------------------------------------
Finished Renaming Generated Nets : Time (s): cpu = 00:00:35 ; elapsed = 00:00:48 . Memory (MB): peak = 629.766 ; gain = 419.676
---------------------------------------------------------------------------------
---------------------------------------------------------------------------------
Start Writing Synthesis Report
---------------------------------------------------------------------------------

Report BlackBoxes: 
+-+--------------+----------+
| |BlackBox name |Instances |
+-+--------------+----------+
+-+--------------+----------+

Report Cell Usage: 
+-+-----+------+
| |Cell |Count |
+-+-----+------+
+-+-----+------+

Report Instance Areas: 
+------+---------+-------------------+------+
|      |Instance |Module             |Cells |
+------+---------+-------------------+------+
|1     |top      |                   |     0|
|2     |  inst   |adc_to_dac_wrapper |     0|
+------+---------+-------------------+------+
---------------------------------------------------------------------------------
Finished Writing Synthesis Report : Time (s): cpu = 00:00:35 ; elapsed = 00:00:48 . Memory (MB): peak = 629.766 ; gain = 419.676
---------------------------------------------------------------------------------
Synthesis finished with 0 errors, 0 critical warnings and 16 warnings.
Synthesis Optimization Runtime : Time (s): cpu = 00:00:17 ; elapsed = 00:00:29 . Memory (MB): peak = 629.766 ; gain = 113.480
Synthesis Optimization Complete : Time (s): cpu = 00:00:35 ; elapsed = 00:00:48 . Memory (MB): peak = 629.766 ; gain = 419.676
INFO: [Project 1-571] Translating synthesized netlist
INFO: [Project 1-570] Preparing netlist for logic optimization
Parsing XDC File [d:/ECE/CapstoneDesign/ECE 483/Code/adc_pid_fifo_dac/adc_pid_fifo_dac.srcs/sources_1/bd/adc_pid_fifo_dac/ip/adc_pid_fifo_dac_adc_to_pid_dac_wrapper_0_0/constrs_1/new/RedPitaya.xdc] for cell 'inst'
CRITICAL WARNING: [Common 17-69] Command failed: Site cannot be assigned to more than one port [d:/ECE/CapstoneDesign/ECE 483/Code/adc_pid_fifo_dac/adc_pid_fifo_dac.srcs/sources_1/bd/adc_pid_fifo_dac/ip/adc_pid_fifo_dac_adc_to_pid_dac_wrapper_0_0/constrs_1/new/RedPitaya.xdc:87]
CRITICAL WARNING: [Common 17-69] Command failed: Site cannot be assigned to more than one port [d:/ECE/CapstoneDesign/ECE 483/Code/adc_pid_fifo_dac/adc_pid_fifo_dac.srcs/sources_1/bd/adc_pid_fifo_dac/ip/adc_pid_fifo_dac_adc_to_pid_dac_wrapper_0_0/constrs_1/new/RedPitaya.xdc:88]
CRITICAL WARNING: [Common 17-69] Command failed: Site cannot be assigned to more than one port [d:/ECE/CapstoneDesign/ECE 483/Code/adc_pid_fifo_dac/adc_pid_fifo_dac.srcs/sources_1/bd/adc_pid_fifo_dac/ip/adc_pid_fifo_dac_adc_to_pid_dac_wrapper_0_0/constrs_1/new/RedPitaya.xdc:89]
CRITICAL WARNING: [Common 17-69] Command failed: Site cannot be assigned to more than one port [d:/ECE/CapstoneDesign/ECE 483/Code/adc_pid_fifo_dac/adc_pid_fifo_dac.srcs/sources_1/bd/adc_pid_fifo_dac/ip/adc_pid_fifo_dac_adc_to_pid_dac_wrapper_0_0/constrs_1/new/RedPitaya.xdc:90]
CRITICAL WARNING: [Common 17-69] Command failed: Site cannot be assigned to more than one port [d:/ECE/CapstoneDesign/ECE 483/Code/adc_pid_fifo_dac/adc_pid_fifo_dac.srcs/sources_1/bd/adc_pid_fifo_dac/ip/adc_pid_fifo_dac_adc_to_pid_dac_wrapper_0_0/constrs_1/new/RedPitaya.xdc:91]
CRITICAL WARNING: [Common 17-69] Command failed: Site cannot be assigned to more than one port [d:/ECE/CapstoneDesign/ECE 483/Code/adc_pid_fifo_dac/adc_pid_fifo_dac.srcs/sources_1/bd/adc_pid_fifo_dac/ip/adc_pid_fifo_dac_adc_to_pid_dac_wrapper_0_0/constrs_1/new/RedPitaya.xdc:92]
CRITICAL WARNING: [Common 17-69] Command failed: Site cannot be assigned to more than one port [d:/ECE/CapstoneDesign/ECE 483/Code/adc_pid_fifo_dac/adc_pid_fifo_dac.srcs/sources_1/bd/adc_pid_fifo_dac/ip/adc_pid_fifo_dac_adc_to_pid_dac_wrapper_0_0/constrs_1/new/RedPitaya.xdc:93]
CRITICAL WARNING: [Common 17-69] Command failed: Site cannot be assigned to more than one port [d:/ECE/CapstoneDesign/ECE 483/Code/adc_pid_fifo_dac/adc_pid_fifo_dac.srcs/sources_1/bd/adc_pid_fifo_dac/ip/adc_pid_fifo_dac_adc_to_pid_dac_wrapper_0_0/constrs_1/new/RedPitaya.xdc:94]
CRITICAL WARNING: [Common 17-69] Command failed: Site cannot be assigned to more than one port [d:/ECE/CapstoneDesign/ECE 483/Code/adc_pid_fifo_dac/adc_pid_fifo_dac.srcs/sources_1/bd/adc_pid_fifo_dac/ip/adc_pid_fifo_dac_adc_to_pid_dac_wrapper_0_0/constrs_1/new/RedPitaya.xdc:95]
CRITICAL WARNING: [Common 17-69] Command failed: Site cannot be assigned to more than one port [d:/ECE/CapstoneDesign/ECE 483/Code/adc_pid_fifo_dac/adc_pid_fifo_dac.srcs/sources_1/bd/adc_pid_fifo_dac/ip/adc_pid_fifo_dac_adc_to_pid_dac_wrapper_0_0/constrs_1/new/RedPitaya.xdc:96]
CRITICAL WARNING: [Common 17-69] Command failed: Site cannot be assigned to more than one port [d:/ECE/CapstoneDesign/ECE 483/Code/adc_pid_fifo_dac/adc_pid_fifo_dac.srcs/sources_1/bd/adc_pid_fifo_dac/ip/adc_pid_fifo_dac_adc_to_pid_dac_wrapper_0_0/constrs_1/new/RedPitaya.xdc:97]
CRITICAL WARNING: [Common 17-69] Command failed: Site cannot be assigned to more than one port [d:/ECE/CapstoneDesign/ECE 483/Code/adc_pid_fifo_dac/adc_pid_fifo_dac.srcs/sources_1/bd/adc_pid_fifo_dac/ip/adc_pid_fifo_dac_adc_to_pid_dac_wrapper_0_0/constrs_1/new/RedPitaya.xdc:98]
CRITICAL WARNING: [Common 17-69] Command failed: Site cannot be assigned to more than one port [d:/ECE/CapstoneDesign/ECE 483/Code/adc_pid_fifo_dac/adc_pid_fifo_dac.srcs/sources_1/bd/adc_pid_fifo_dac/ip/adc_pid_fifo_dac_adc_to_pid_dac_wrapper_0_0/constrs_1/new/RedPitaya.xdc:99]
CRITICAL WARNING: [Common 17-69] Command failed: Site cannot be assigned to more than one port [d:/ECE/CapstoneDesign/ECE 483/Code/adc_pid_fifo_dac/adc_pid_fifo_dac.srcs/sources_1/bd/adc_pid_fifo_dac/ip/adc_pid_fifo_dac_adc_to_pid_dac_wrapper_0_0/constrs_1/new/RedPitaya.xdc:100]
Finished Parsing XDC File [d:/ECE/CapstoneDesign/ECE 483/Code/adc_pid_fifo_dac/adc_pid_fifo_dac.srcs/sources_1/bd/adc_pid_fifo_dac/ip/adc_pid_fifo_dac_adc_to_pid_dac_wrapper_0_0/constrs_1/new/RedPitaya.xdc] for cell 'inst'
INFO: [Opt 31-138] Pushed 0 inverter(s) to 0 load pin(s).
INFO: [Project 1-111] Unisim Transformation Summary:
No Unisim elements were transformed.

INFO: [Common 17-83] Releasing license: Synthesis
27 Infos, 17 Warnings, 14 Critical Warnings and 0 Errors encountered.
synth_design completed successfully
synth_design: Time (s): cpu = 00:00:33 ; elapsed = 00:00:42 . Memory (MB): peak = 629.766 ; gain = 413.492
INFO: [Common 17-1381] The checkpoint 'D:/ECE/CapstoneDesign/ECE 483/Code/adc_pid_fifo_dac/adc_pid_fifo_dac.runs/adc_pid_fifo_dac_adc_to_pid_dac_wrapper_0_0_synth_1/adc_pid_fifo_dac_adc_to_pid_dac_wrapper_0_0.dcp' has been generated.
